Jak pracuju - Analýza struktury většího počtu URL
…
Pomocí ChatGPT jsem vygeneroval vzorek náhodných URL a uložil do souboru url.csv.

sample_df <- read_csv("url.csv")

Rows: 81 Columns: 1
── Column specification ────────────────────────────────────────────────────────
Delimiter: ","
chr (1): url

ℹ Use `spec()` to retrieve the full column specification for this data.
ℹ Specify the column types or set `show_col_types = FALSE` to quiet this message.

sample_df

# A tibble: 81 × 1
   url                                                           
   <chr>                                                         
 1 http://example.com/index.html                                 
 2 https://blog.example.com/archive#february                     
 3 http://example.net/about.html                                 
 4 https://secure.example.org/search?q=keyword                   
 5 http://example.com/products/item1.html                        
 6 https://secure.example.com/login?return_url=/account/dashboard
 7 http://example.net/news/2023/02/17/headline                   
 8 https://shop.example.com/cart?item=12345                      
 9 http://example.org/resources/guide.pdf                        
10 https://login.example.com/                                    
# … with 71 more rows

Rozložení URL

URL nejprve rozložím na jednotlivé části podle RFC 3986. Zároveň přejmenuju některé sloupce tak, aby odpovídaly RFC.

sample_df <- read_csv("url.csv") |> 
  bind_cols(url_parse(sample_df$url)) |> 
  rename(host = domain) |> 
  rename(query = parameter)
sample_df

# A tibble: 81 × 7
   url                                    scheme host  port  path  query fragm…¹
   <chr>                                  <chr>  <chr> <chr> <chr> <chr> <chr>  
 1 http://example.com/index.html          http   exam… <NA>  inde… <NA>  <NA>   
 2 https://blog.example.com/archive#febr… https  blog… <NA>  arch… <NA>  februa…
 3 http://example.net/about.html          http   exam… <NA>  abou… <NA>  <NA>   
 4 https://secure.example.org/search?q=k… https  secu… <NA>  sear… q=ke… <NA>   
 5 http://example.com/products/item1.html http   exam… <NA>  prod… <NA>  <NA>   
 6 https://secure.example.com/login?retu… https  secu… <NA>  login retu… <NA>   
 7 http://example.net/news/2023/02/17/he… http   exam… <NA>  news… <NA>  <NA>   
 8 https://shop.example.com/cart?item=12… https  shop… <NA>  cart  item… <NA>   
 9 http://example.org/resources/guide.pdf http   exam… <NA>  reso… <NA>  <NA>   
10 https://login.example.com/             https  logi… <NA>  <NA>  <NA>  <NA>   
# … with 71 more rows, and abbreviated variable name ¹​fragment
…
Nejprve musím zjistit maximální počet lomítek.

max_level <- sample_df |> 
  mutate(level = str_count(path, "/") + 1) |> 
  pull(level) |> 
  max(na.rm = TRUE)

Nyní rozložím cestu pomocí tidyr::separate.

sample_df |> 
  select(path) |> 
  separate(path, into = paste0("l", 1:max_level), sep = "/", fill = "right")

# A tibble: 81 × 5
   l1         l2         l3    l4    l5      
   <chr>      <chr>      <chr> <chr> <chr>   
 1 index.html <NA>       <NA>  <NA>  <NA>    
 2 archive    <NA>       <NA>  <NA>  <NA>    
 3 about.html <NA>       <NA>  <NA>  <NA>    
 4 search     <NA>       <NA>  <NA>  <NA>    
 5 products   item1.html <NA>  <NA>  <NA>    
 6 login      <NA>       <NA>  <NA>  <NA>    
 7 news       2023       02    17    headline
 8 cart       <NA>       <NA>  <NA>  <NA>    
 9 resources  guide.pdf  <NA>  <NA>  <NA>    
10 <NA>       <NA>       <NA>  <NA>  <NA>    
# … with 71 more rows
…
